^C:\USERS\DARIA\DESKTOP\ASM\TEST1\TEST1\DEBUG\SOURCE.OBJ
C:\USERS\DARIA\DESKTOP\ASM\TEST1\DEBUG\TEST1.ILK
C:\USERS\DARIA\DESKTOP\ASM\TEST1\DEBUG\TEST1.EXE
C:\USERS\DARIA\DESKTOP\ASM\TEST1\DEBUG\TEST1.PDB
