^C:\USERS\DARIA\DESKTOP\ASM\TEST2\TEST2\SOURCE.CPP
C:\USERS\DARIA\DESKTOP\ASM\TEST2\TEST2\DEBUG\VC140.PDB
C:\USERS\DARIA\DESKTOP\ASM\TEST2\TEST2\DEBUG\VC140.IDB
C:\USERS\DARIA\DESKTOP\ASM\TEST2\TEST2\DEBUG\SOURCE.OBJ
